module gitlab.com/e2pi/mu/infra/terralite

go 1.19

require (
	github.com/caddyserver/caddy/v2 v2.6.2
	github.com/go-kit/kit v0.12.0
	github.com/gorilla/mux v1.8.0
)

require github.com/google/go-cmp v0.5.9 // indirect

require (
	filippo.io/edwards25519 v1.0.0-rc.1 // indirect
	github.com/AndreasBriese/bbloom v0.0.0-20190825152654-46b345b51c96 // indirect
	github.com/BurntSushi/toml v1.2.0 // indirect
	github.com/Masterminds/goutils v1.1.1 // indirect
	github.com/Masterminds/semver/v3 v3.1.1 // indirect
	github.com/Masterminds/sprig/v3 v3.2.2 // indirect
	github.com/alecthomas/chroma v0.10.0 // indirect
	github.com/antlr/antlr4/runtime/Go/antlr v0.0.0-20220418222510-f25a4f6275ed // indirect
	github.com/aryann/difflib v0.0.0-20210328193216-ff5ff6dc229b // indirect
	github.com/beorn7/perks v1.0.1 // indirect
	github.com/caddyserver/certmagic v0.17.2 // indirect
	github.com/cenkalti/backoff/v4 v4.1.2 // indirect
	github.com/cespare/xxhash v1.1.0 // indirect
	github.com/cespare/xxhash/v2 v2.1.2 // indirect
	github.com/chzyer/readline v0.0.0-20180603132655-2972be24d48e // indirect
	github.com/cpuguy83/go-md2man/v2 v2.0.2 // indirect
	github.com/dgraph-io/badger v1.6.2 // indirect
	github.com/dgraph-io/badger/v2 v2.2007.4 // indirect
	github.com/dgraph-io/ristretto v0.0.4-0.20200906165740-41ebdbffecfd // indirect
	github.com/dgryski/go-farm v0.0.0-20200201041132-a6ae2369ad13 // indirect
	github.com/dlclark/regexp2 v1.4.0 // indirect
	github.com/dustin/go-humanize v1.0.1-0.20200219035652-afde56e7acac // indirect
	github.com/felixge/httpsnoop v1.0.3 // indirect
	github.com/fsnotify/fsnotify v1.5.1 // indirect
	github.com/go-chi/chi v4.1.2+incompatible // indirect
	github.com/go-kit/log v0.2.0 // indirect
	github.com/go-logfmt/logfmt v0.5.1 // indirect
	github.com/go-logr/logr v1.2.3 // indirect
	github.com/go-logr/stdr v1.2.2 // indirect
	github.com/go-ozzo/ozzo-dbx v1.5.0
	github.com/go-sql-driver/mysql v1.6.0 // indirect
	github.com/go-task/slim-sprig v0.0.0-20210107165309-348f09dbbbc0 // indirect
	github.com/golang/mock v1.6.0 // indirect
	github.com/golang/protobuf v1.5.2 // indirect
	github.com/golang/snappy v0.0.4 // indirect
	github.com/google/cel-go v0.12.5 // indirect
	github.com/google/uuid v1.3.0 // indirect
	github.com/grpc-ecosystem/grpc-gateway v1.16.0 // indirect
	github.com/huandu/xstrings v1.3.2 // indirect
	github.com/imdario/mergo v0.3.12 // indirect
	github.com/inconshreveable/mousetrap v1.0.1 // indirect
	github.com/jackc/chunkreader/v2 v2.0.1 // indirect
	github.com/jackc/pgconn v1.10.1 // indirect
	github.com/jackc/pgio v1.0.0 // indirect
	github.com/jackc/pgpassfile v1.0.0 // indirect
	github.com/jackc/pgproto3/v2 v2.2.0 // indirect
	github.com/jackc/pgservicefile v0.0.0-20200714003250-2b9c44734f2b // indirect
	github.com/jackc/pgtype v1.9.0 // indirect
	github.com/jackc/pgx/v4 v4.14.0 // indirect
	github.com/klauspost/compress v1.15.11 // indirect
	github.com/klauspost/cpuid/v2 v2.1.1 // indirect
	github.com/libdns/libdns v0.2.1 // indirect
	github.com/lucas-clemente/quic-go v0.29.2 // indirect
	github.com/manifoldco/promptui v0.9.0 // indirect
	github.com/marten-seemann/qpack v0.2.1 // indirect
	github.com/marten-seemann/qtls-go1-18 v0.1.3 // indirect
	github.com/marten-seemann/qtls-go1-19 v0.1.1 // indirect
	github.com/mattn/go-colorable v0.1.8 // indirect
	github.com/mattn/go-isatty v0.0.16 // indirect
	github.com/mattn/go-sqlite3 v1.14.16
	github.com/matttproud/golang_protobuf_extensions v1.0.1 // indirect
	github.com/mgutz/ansi v0.0.0-20200706080929-d51e80ef957d // indirect
	github.com/mholt/acmez v1.0.4 // indirect
	github.com/micromdm/scep/v2 v2.1.0 // indirect
	github.com/miekg/dns v1.1.50 // indirect
	github.com/mitchellh/copystructure v1.2.0 // indirect
	github.com/mitchellh/go-ps v1.0.0 // indirect
	github.com/mitchellh/reflectwalk v1.0.2 // indirect
	github.com/nxadm/tail v1.4.8 // indirect
	github.com/onsi/ginkgo v1.16.4 // indirect
	github.com/pkg/errors v0.9.1 // indirect
	github.com/prometheus/client_golang v1.12.2 // indirect
	github.com/prometheus/client_model v0.2.0 // indirect
	github.com/prometheus/common v0.32.1 // indirect
	github.com/prometheus/procfs v0.7.3 // indirect
	github.com/rs/xid v1.2.1 // indirect
	github.com/russross/blackfriday/v2 v2.1.0 // indirect
	github.com/shopspring/decimal v1.2.0 // indirect
	github.com/shurcooL/sanitized_anchor_name v1.0.0 // indirect
	github.com/sirupsen/logrus v1.8.1 // indirect
	github.com/slackhq/nebula v1.5.2 // indirect
	github.com/smallstep/certificates v0.22.1 // indirect
	github.com/smallstep/cli v0.22.0 // indirect
	github.com/smallstep/nosql v0.4.0 // indirect
	github.com/smallstep/truststore v0.12.0 // indirect
	github.com/spf13/cast v1.4.1 // indirect
	github.com/spf13/cobra v1.6.1 // indirect
	github.com/spf13/pflag v1.0.5 // indirect
	github.com/stoewer/go-strcase v1.2.0 // indirect
	github.com/tailscale/tscert v0.0.0-20220316030059-54bbcb9f74e2 // indirect
	github.com/urfave/cli v1.22.5 // indirect
	github.com/yuin/goldmark v1.5.2 // indirect
	github.com/yuin/goldmark-highlighting v0.0.0-20220208100518-594be1970594 // indirect
	go.etcd.io/bbolt v1.3.6 // indirect
	go.mozilla.org/pkcs7 v0.0.0-20210826202110-33d05740a352 // indirect
	go.opentelemetry.io/contrib/instrumentation/net/http/otelhttp v0.34.0 // indirect
	go.opentelemetry.io/otel v1.9.0 // indirect
	go.opentelemetry.io/otel/exporters/otlp/internal/retry v1.4.0 // indirect
	go.opentelemetry.io/otel/exporters/otlp/otlptrace v1.4.0 // indirect
	go.opentelemetry.io/otel/exporters/otlp/otlptrace/otlptracegrpc v1.4.0 // indirect
	go.opentelemetry.io/otel/metric v0.31.0 // indirect
	go.opentelemetry.io/otel/sdk v1.4.0 // indirect
	go.opentelemetry.io/otel/trace v1.9.0 // indirect
	go.opentelemetry.io/proto/otlp v0.12.0 // indirect
	go.step.sm/cli-utils v0.7.4 // indirect
	go.step.sm/crypto v0.18.0 // indirect
	go.step.sm/linkedca v0.18.0 // indirect
	go.uber.org/atomic v1.9.0 // indirect
	go.uber.org/multierr v1.7.0 // indirect
	go.uber.org/zap v1.24.0
	golang.org/x/crypto v0.0.0-20220722155217-630584e8d5aa // indirect
	golang.org/x/exp v0.0.0-20220722155223-a9213eeb770e // indirect
	golang.org/x/mod v0.6.0-dev.0.20220106191415-9b9b3d81d5e3 // indirect
	golang.org/x/net v0.0.0-20220812165438-1d4ff48094d1 // indirect
	golang.org/x/sys v0.0.0-20220811171246-fbc7d0a398ab // indirect
	golang.org/x/term v0.0.0-20210927222741-03fcf44c2211 // indirect
	golang.org/x/text v0.3.8-0.20211004125949-5bd84dd9b33b // indirect
	golang.org/x/tools v0.1.10 // indirect
	golang.org/x/xerrors v0.0.0-20220609144429-65e65417b02f // indirect
	google.golang.org/genproto v0.0.0-20220617124728-180714bec0ad // indirect
	google.golang.org/grpc v1.47.0 // indirect
	google.golang.org/protobuf v1.28.0 // indirect
	gopkg.in/natefinch/lumberjack.v2 v2.0.0 // indirect
	gopkg.in/square/go-jose.v2 v2.6.0 // indirect
	gopkg.in/tomb.v1 v1.0.0-20141024135613-dd632973f1e7 // indirect
	gopkg.in/yaml.v3 v3.0.1 // indirect
	howett.net/plist v1.0.0 // indirect
)
